<svg width="60" height="60" viewBox="0 0 60 60" fill="none" xmlns="http://www.w3.org/2000/svg">
<path d="M41.6448 18.816H19.0219C16.9848 18.816 15.3334 20.4675 15.3334 22.5046V40.0668C15.3334 42.1039 16.9848 43.7554 19.0219 43.7554H41.6448C43.6819 43.7554 45.3334 42.1039 45.3334 40.0668V22.5046C45.3334 20.4675 43.6819 18.816 41.6448 18.816ZM19.0219 20.2914H41.6448C42.867 20.2914 43.858 21.2824 43.858 22.5046V40.0668C43.858 41.289 42.867 42.2799 41.6448 42.2799H19.0219C17.7998 42.2799 16.8088 41.289 16.8088 40.0668V22.5046C16.8088 21.2824 17.7998 20.2914 19.0219 20.2914Z" fill="#003791"/>
<path d="M28.0332 33.816H33.0939V38.8767H28.0332V33.816ZM19.7517 33.816H24.8124V38.8767H19.7517V33.816Z" stroke="#003791" stroke-width="1.47541" stroke-linecap="round" stroke-linejoin="round"/>
<path d="M24.9275 25.0748C25.2103 25.0748 25.4399 25.2976 25.4399 25.573V30.5574C25.4399 30.8328 25.2103 31.0556 24.9275 31.0556H19.8039C19.5211 31.0556 19.2914 30.8323 19.2914 30.5574V25.573C19.2914 25.2976 19.5211 25.0748 19.8039 25.0748H24.9275ZM33.1253 25.0748C33.4081 25.0748 33.6373 25.2976 33.6373 25.573V30.5574C33.6373 30.8328 33.4081 31.0556 33.1253 31.0556H28.0017C27.7185 31.0556 27.4893 30.8323 27.4893 30.5574V25.573C27.4893 25.2976 27.7185 25.0748 28.0017 25.0748H33.1253ZM24.4155 26.0717H20.3158V30.0587H24.4145V26.0717H24.4155ZM32.6129 26.0717H28.5137V30.0587H32.6124L32.6129 26.0717Z" fill="#003791"/>
<path d="M41.3227 25.0748C41.606 25.0748 41.8352 25.2976 41.8352 25.573V30.5574C41.8352 30.8328 41.606 31.0556 41.3227 31.0556H36.1991C35.9163 31.0556 35.6871 30.8323 35.6871 30.5574V25.573C35.6871 25.2976 35.9163 25.0748 36.1991 25.0748H41.3227ZM40.8108 26.0717H36.7116V30.0587H40.8108V26.0717Z" fill="#FF4B5F"/>
<path d="M35.8544 33.816H40.915V38.8767H35.8544V33.816Z" stroke="#003791" stroke-width="1.47541" stroke-linecap="round" stroke-linejoin="round"/>
<path d="M24.3521 17.4833C24.3521 17.1022 24.0431 16.7933 23.6621 16.7933C23.281 16.7933 22.9721 17.1022 22.9721 17.4833V21.1639C22.9721 21.545 23.281 21.8539 23.6621 21.8539C24.0431 21.8539 24.3521 21.545 24.3521 21.1639V17.4833Z" fill="#003791"/>
<path d="M28.9529 17.4833C28.9529 17.1022 28.644 16.7933 28.2629 16.7933C27.8818 16.7933 27.5729 17.1022 27.5729 17.4833V21.1639C27.5729 21.545 27.8818 21.8539 28.2629 21.8539C28.644 21.8539 28.9529 21.545 28.9529 21.1639V17.4833Z" fill="#003791"/>
<path d="M33.0934 17.4833C33.0934 17.1022 32.7845 16.7933 32.4034 16.7933C32.0223 16.7933 31.7134 17.1022 31.7134 17.4833V21.1639C31.7134 21.545 32.0223 21.8539 32.4034 21.8539C32.7845 21.8539 33.0934 21.545 33.0934 21.1639V17.4833Z" fill="#003791"/>
<path d="M37.6942 17.4833C37.6942 17.1022 37.3853 16.7933 37.0042 16.7933C36.6231 16.7933 36.3142 17.1022 36.3142 17.4833V21.1639C36.3142 21.545 36.6231 21.8539 37.0042 21.8539C37.3853 21.8539 37.6942 21.545 37.6942 21.1639V17.4833Z" fill="#003791"/>
</svg>
