<svg width="60" height="60" viewBox="0 0 60 60" fill="none" xmlns="http://www.w3.org/2000/svg">
<path d="M17 39.3489L18.1628 41.0931H40.8372L42 39.3489C42 39.3489 41.7093 35.2791 34.4419 31.7908C33.5698 31.7908 33.5698 32.9536 32.9884 33.535C32.407 34.1164 30.9535 35.2791 29.7907 35.2791C28.6279 35.2791 26.8837 34.6977 26.0116 33.535C25.1395 32.3722 25.1395 31.7908 24.5581 31.7908C23.9767 31.7908 18.7442 34.1164 17 39.3489Z" fill="#253887"/>
<path d="M29.5 30.6279C32.3899 30.6279 34.7326 28.0249 34.7326 24.814C34.7326 21.603 32.3899 19 29.5 19C26.6102 19 24.2675 21.603 24.2675 24.814C24.2675 28.0249 26.6102 30.6279 29.5 30.6279Z" fill="#E8434A"/>
</svg>
